StartDate,EndDate,Status,Progress,Duration (in seconds),Finished,RecordedDate,ResponseId,DistributionChannel,UserLanguage,Q2_1,Q3,Q3_10_TEXT,Q4,Q5,Q6,Q7,Q7_6_TEXT,Q8,Q8_19_TEXT,Q9,Q10,Q11,Q12,Q13,Q14,Q14_3_TEXT,Q15,Q16,Q17,Q18,Q19,Q20,Q21,Q22,Q23,Q23_3_TEXT,Q24,Q25,Q26,Q27,Q28,Q29
Start Date,End Date,Response Type,Progress,Duration (in seconds),Finished,Recorded Date,Response ID,Distribution Channel,User Language,How long have you been working in the software industry? - Years,What is your primary role in your current job? - Selected Choice,What is your primary role in your current job? - Other (please specify) - Text,What is the size of the team you currently work with day-to-day as part of your current project/product?,What approach to software development do you take as part of your current project/product?,How much professional experience do you have working with automated testing?,"In your current company / for your current client, what types of projects do you primarily work on? - Selected Choice","In your current company / for your current client, what types of projects do you primarily work on? - Other (please specify) - Text",What application domain is you current project targeted at? - Selected Choice,What application domain is you current project targeted at? - Other (please specify) - Text,List of Countries,"How familiar are you with the concept of unit test-driven development, acceptance test-driven development or other test-first strategies used in relation to unit testing?",What level of training have you received for test-first strategies?,How often do you use test-first strategies in practice?,Is the use of this strategy a personal choice or is it a team-wide practice?,Do you use this strategy for unit or acceptance testing? - Selected Choice,Do you use this strategy for unit or acceptance testing? - Other (please specify) - Text,How effective do you find this strategy for unit testing?,Please provide a reason(s) as to why you find this strategy to be / not to be effective for unit testing.,How effective do you find this strategy for acceptance testing?,Please provide a reason(s) as to why you find this strategy to be / not to be effective for acceptance testing.,How familiar are you with the concept of a testing strategy that uses models to generate tests?,What level of training have you received for model-based testing strategies?,How often do you use model-based testing strategies in practice?,Is the use of this strategy a personal choice or is it a team-wide practice?,Do you use this strategy for unit or acceptance testing? - Selected Choice,Do you use this strategy for unit or acceptance testing? - Other (please specify) - Text,How effective do you find this strategy for unit testing?,Please provide a reason(s) as to why you find this strategy to be / not to be effective for unit testing.,How effective do you find this strategy for acceptance testing?,Please provide a reason(s) as to why you find this strategy to be / not to be effective for acceptance testing.,Are there any additional comments you would like to make? (optional),"Would you like to receive a copy of the research results, or be notified if a focus group is planned to discuss the findings in more detail? Your contact information will not be linked to you responses."
"{""ImportId"":""startDate"",""timeZone"":""America/Denver""}","{""ImportId"":""endDate"",""timeZone"":""America/Denver""}","{""ImportId"":""status""}","{""ImportId"":""progress""}","{""ImportId"":""duration""}","{""ImportId"":""finished""}","{""ImportId"":""recordedDate"",""timeZone"":""America/Denver""}","{""ImportId"":""_recordId""}","{""ImportId"":""distributionChannel""}","{""ImportId"":""userLanguage""}","{""ImportId"":""QID1_1""}","{""ImportId"":""QID7""}","{""ImportId"":""QID7_10_TEXT""}","{""ImportId"":""QID22""}","{""ImportId"":""QID23""}","{""ImportId"":""QID8""}","{""ImportId"":""QID11""}","{""ImportId"":""QID11_6_TEXT""}","{""ImportId"":""QID24""}","{""ImportId"":""QID24_19_TEXT""}","{""ImportId"":""QID27""}","{""ImportId"":""QID12""}","{""ImportId"":""QID34""}","{""ImportId"":""QID35""}","{""ImportId"":""QID17""}","{""ImportId"":""QID29""}","{""ImportId"":""QID29_3_TEXT""}","{""ImportId"":""QID15""}","{""ImportId"":""QID16_TEXT""}","{""ImportId"":""QID31""}","{""ImportId"":""QID32_TEXT""}","{""ImportId"":""QID36""}","{""ImportId"":""QID37""}","{""ImportId"":""QID38""}","{""ImportId"":""QID40""}","{""ImportId"":""QID39""}","{""ImportId"":""QID39_3_TEXT""}","{""ImportId"":""QID41""}","{""ImportId"":""QID42_TEXT""}","{""ImportId"":""QID43""}","{""ImportId"":""QID44_TEXT""}","{""ImportId"":""QID45_TEXT""}","{""ImportId"":""QID52""}"
2021-08-26 01:26:14,2021-08-26 01:31:30,IP Address,100,315,TRUE,2021-08-26 01:31:31,R_2CqYFGjCqNRTRr2,anonymous,EN,15,Developer,,greater than 10,Plan-based development,1-3 years,"Desktop development,Web development",,Financial and Insurance services,,Iran,Very familiar,Self-study,At least once per project,Personal,Acceptance testing,,,,Moderately effective,as it helps to test the system from the user point of view ,Slightly familiar,No training,Never,,,,,,,,,Maybe
2021-08-26 02:06:17,2021-08-26 02:12:43,IP Address,100,385,TRUE,2021-08-26 02:12:43,R_1jKaC2psfqSIuuJ,anonymous,EN,8,Team lead,,2-5,Ad-hoc,5-10 years,"Desktop development,Web development,Cloud-based infrastructure (e.g. SaaS),Embedded systems",,"Transport, Postal and Warehousing",,Belgium,Very familiar,"Professional development (e.g. dedicated workshop) required or supported by my employer,Self-study,Coaching from peers",As part of daily development practices,Team-wide,"Unit testing,Acceptance testing",,Extremely effective,Debugging while coding. One way of documenting the code.,Extremely effective,Finding bugs as soon as possible with either simulated or real data from the customer.,Not familiar at all,No training,Never,,,,,,,,,No
2021-08-26 02:32:50,2021-08-26 02:41:05,IP Address,100,494,TRUE,2021-08-26 02:41:05,R_2eROJU8W3jyODT6,anonymous,EN,3,Developer,,2-5,Iterative or incremental,1-3 years,"Web development,Cloud-based infrastructure (e.g. SaaS)",,Other (please specify),Online advertising,New Zealand,Extremely familiar,"Training as part of my degree (i.e. tertiary education provider),Self-study,Coaching from peers",As part of daily development practices,Personal,Unit testing,,Very effective,"It helps me design better code when I write unit tests before writing the actual code. It is quite easy in my current role as code is usually loosely coupled. If I adding a new feature then I can quickly write a few unit tests, write new code, refactor old code to my heart's content since I now have the safety of the tests.  ",,,Slightly familiar,Training as part of my degree (i.e. tertiary education provider),Never,,,,,,,,,Yes
2021-08-26 05:06:07,2021-08-26 05:10:07,IP Address,100,239,TRUE,2021-08-26 05:10:08,R_2wgKuqLvsRBKO1T,anonymous,EN,3,Developer,,2-5,Iterative or incremental,1-3 years,"Web development,Cloud-based infrastructure (e.g. SaaS)",,Financial and Insurance services,,New Zealand,Extremely familiar,"Training as part of my degree (i.e. tertiary education provider),Professional development (e.g. dedicated workshop) required or supported by my employer",As part of daily development practices,Personal,Unit testing,,Extremely effective,helps to identify bugs early,,,Moderately familiar,"Training as part of my degree (i.e. tertiary education provider),Professional development (e.g. dedicated workshop) required or supported by my employer",Never,,,,,,,,,Yes
2021-08-26 08:01:32,2021-08-26 08:06:43,IP Address,100,311,TRUE,2021-08-26 08:06:44,R_1Frpz3Es5GtaGee,anonymous,EN,4,Developer,,2-5,Plan-based development,less than 1 year,"Desktop development,Web development",,Other (please specify),Logistics,Belgium,Slightly familiar,"Self-study,Coaching from peers",At least once per project,Personal,Unit testing,,Very effective,"Effective because it avoid writing the test ""for"" the implementation we did. However it also means that the test MUST be correct, otherwise, it is not effective.",,,Not familiar at all,No training,Never,,,,,,,,,Yes
2021-08-26 13:10:31,2021-08-26 13:18:24,IP Address,100,473,TRUE,2021-08-26 13:18:26,R_2TufVgYg0q6Vg0a,anonymous,EN,3,Developer,,2-5,Iterative or incremental,1-3 years,Cloud-based infrastructure (e.g. SaaS),,Other (please specify),Advertising,New Zealand,Very familiar,Training as part of my degree (i.e. tertiary education provider),At least once per week,Personal,Unit testing,,Very effective,Helps the code to be more easily unit testable as you're thinking about unit testing upfront rather than trying to retrofit unit tests in hindsight,,,Slightly familiar,Training as part of my degree (i.e. tertiary education provider),Never,,,,,,,,,Maybe
2021-08-29 01:39:56,2021-08-29 01:42:03,IP Address,100,127,TRUE,2021-08-29 01:42:03,R_2BxSlj3B8h3Qq1S,anonymous,EN,2,Developer,,greater than 10,Iterative or incremental,1-3 years,"Mobile development,Cloud-based infrastructure (e.g. SaaS)",,Financial and Insurance services,,United States of America,Moderately familiar,Training as part of my degree (i.e. tertiary education provider),Never,,,,,,,,Moderately familiar,Training as part of my degree (i.e. tertiary education provider),Never,,,,,,,,,Yes
2021-08-29 23:10:25,2021-08-29 23:11:21,Survey Preview,100,56,TRUE,2021-08-29 23:11:22,R_2ByCZBZVa2ZqoVw,preview,EN,15,Team lead,,greater than 10,Ad-hoc,No experience,Embedded systems,,Manufacturing,,New Zealand,Not familiar at all,No training,Never,,,,,,,,Not familiar at all,No training,Never,,,,,,,,,Yes
2021-08-16 00:00:12,2021-08-29 23:35:19,Survey Preview,100,1208107,TRUE,2021-08-29 23:35:20,R_6wZiCkvvrl6lho5,preview,EN,12,Technical lead,,6-10,Ad-hoc,1-3 years,Desktop development,,Arts and Recreation services,,New Zealand,Slightly familiar,Professional development (e.g. dedicated workshop) required or supported by my employer,Never,,,,,,,,Slightly familiar,No training,Never,,,,,,,,,No
2021-08-30 19:40:13,2021-08-30 19:42:31,IP Address,100,138,TRUE,2021-08-30 19:42:32,R_3nf30ZNymq7Ba1E,anonymous,EN,4,Developer,,2-5,Iterative or incremental,3-5 years,"Mobile development,Web development,Cloud-based infrastructure (e.g. SaaS)",,"Agriculture, Forestry and Fishing",,New Zealand,Moderately familiar,"Training as part of my degree (i.e. tertiary education provider),Self-study",Never,,,,,,,,Not familiar at all,No training,Never,,,,,,,,,No
2021-08-30 20:24:36,2021-08-30 20:28:20,IP Address,100,223,TRUE,2021-08-30 20:28:20,R_1Bnt7XVU1dmIU3T,anonymous,EN,6,Developer,,greater than 10,Iterative or incremental,1-3 years,"Web development,Embedded systems",,"Electricity, Gas, Water and Waste services",,New Zealand,Slightly familiar,Self-study,Never,,,,,,,,Not familiar at all,No training,Never,,,,,,,,,Yes
2021-08-31 02:13:07,2021-08-31 02:17:05,IP Address,100,237,TRUE,2021-08-31 02:17:05,R_2WMvIowLFuqoHDE,anonymous,EN,29,Architect,,greater than 10,Ad-hoc,3-5 years,Embedded systems,,Construction,,United States of America,Very familiar,"Self-study,Coaching from peers",At least once per project,Personal,Unit testing,,Very effective,Helps to understand and clarify the work to be done,,,Slightly familiar,No training,Never,,,,,,,,,Maybe
2021-08-31 13:36:51,2021-08-31 13:40:16,IP Address,100,204,TRUE,2021-08-31 13:40:16,R_2EnGSOx02aqRBDP,anonymous,EN,3,Developer,,2-5,Ad-hoc,less than 1 year,"Mobile development,Desktop development,Web development,Cloud-based infrastructure (e.g. SaaS)",,Information Media and Telecommunication,,New Zealand,Extremely familiar,"Training as part of my degree (i.e. tertiary education provider),Professional development (e.g. dedicated workshop) required or supported by my employer,Self-study",At least once per week,Team-wide,Unit testing,,Extremely effective,Silly not to,,,Not familiar at all,No training,Never,,,,,,,,,No
2021-08-26 01:53:00,2021-08-26 01:53:07,IP Address,3,7,FALSE,2021-09-02 01:53:10,R_2rqFt8haRLJOdqM,anonymous,EN,,,,,,,,,,,,,,,,,,,,,,,,,,,,,,,,,
2021-08-26 02:45:08,2021-08-26 02:46:21,IP Address,21,72,FALSE,2021-09-02 02:46:25,R_eUIVRn0jaumkwc9,anonymous,EN,25,Other (please specify),CTO,greater than 10,Iterative or incremental,more than 10 years,,,,,,,,,,,,,,,,,,,,,,,,,,,
2021-08-26 05:10:29,2021-08-26 05:10:55,IP Address,31,26,FALSE,2021-09-02 05:10:56,R_2UfpspZEw9v9dTo,anonymous,EN,3,Developer,,2-5,Iterative or incremental,1-3 years,Cloud-based infrastructure (e.g. SaaS),,"Professional, Scientific and Technical services",,New Zealand,,,,,,,,,,,,,,,,,,,,,,
2021-08-26 10:21:13,2021-08-26 10:21:18,IP Address,3,4,FALSE,2021-09-02 10:21:20,R_2PoiDOqDzn5AhZx,anonymous,EN,,,,,,,,,,,,,,,,,,,,,,,,,,,,,,,,,
2021-08-26 13:46:29,2021-08-26 13:48:58,IP Address,48,148,FALSE,2021-09-02 13:49:03,R_3kAJFYDloRYOdZk,anonymous,EN,10,Team lead,,2-5,Iterative or incremental,5-10 years,Cloud-based infrastructure (e.g. SaaS),,Retail Trade,,Germany,Very familiar,"Self-study,Coaching from peers",As part of daily development practices,Personal,Unit testing,,,,,,,,,,,,,,,,,
2021-08-26 19:18:32,2021-08-26 19:18:48,IP Address,3,16,FALSE,2021-09-02 19:18:51,R_so1ahVACbh3CAWR,anonymous,EN,,,,,,,,,,,,,,,,,,,,,,,,,,,,,,,,,
2021-09-03 21:41:49,2021-09-03 21:47:53,IP Address,100,364,TRUE,2021-09-03 21:47:54,R_31AuSf53SqFE6mT,anonymous,EN,10,Team lead,,2-5,Ad-hoc,3-5 years,Cloud-based infrastructure (e.g. SaaS),,Information Media and Telecommunication,,New Zealand,Slightly familiar,"Training as part of my degree (i.e. tertiary education provider),Self-study",Never,,,,,,,,Not familiar at all,No training,Never,,,,,,,,,No
2021-08-27 23:04:54,2021-08-27 23:08:01,IP Address,48,187,FALSE,2021-09-03 23:08:04,R_3ekNpl1EA2Ei4ZZ,anonymous,EN,1,Developer,,6-10,Iterative or incremental,1-3 years,Desktop development,,Construction,,United States of America,Very familiar,"Training as part of my degree (i.e. tertiary education provider),Self-study,Coaching from peers",At least once per project,Personal,"Unit testing,Acceptance testing",,,,,,,,,,,,,,,,,
2021-08-28 04:30:37,2021-08-28 04:31:27,IP Address,3,49,FALSE,2021-09-04 04:31:29,R_erlSGuQJCI9QFdT,anonymous,EN,,,,,,,,,,,,,,,,,,,,,,,,,,,,,,,,,
2021-08-29 06:42:42,2021-08-29 06:42:46,IP Address,3,3,FALSE,2021-09-05 06:42:50,R_5A6CqxzTbQEULtL,anonymous,EN,,,,,,,,,,,,,,,,,,,,,,,,,,,,,,,,,
2021-08-30 00:49:12,2021-08-30 00:55:20,IP Address,0,367,FALSE,2021-09-06 00:55:23,R_27Ir2qFop8vgzKh,anonymous,EN,,,,,,,,,,,,,,,,,,,,,,,,,,,,,,,,,
2021-09-06 15:25:03,2021-09-06 15:27:35,IP Address,100,152,TRUE,2021-09-06 15:27:35,R_3Po8whAevFSRcnS,anonymous,EN,3,Developer,,2-5,Iterative or incremental,less than 1 year,Web development,,Education and Training,,France,Moderately familiar,Self-study,At least once per iteration / sprint,Personal,Acceptance testing,,,,Moderately effective,Effective but not covering enough,Slightly familiar,Self-study,Never,,,,,,,,,Yes
2021-09-06 15:38:10,2021-09-06 15:43:14,IP Address,100,304,TRUE,2021-09-06 15:43:15,R_RUARdLiGdJpvF6x,anonymous,EN,5,Developer,,self-employed,Iterative or incremental,less than 1 year,Web development,,Information Media and Telecommunication,,France,Very familiar,"Training as part of my degree (i.e. tertiary education provider),Self-study,Coaching from peers",As part of daily development practices,Personal,"Unit testing,Acceptance testing",,Very effective,Limit over engeneering code,Very effective,Help refactor,Not familiar at all,No training,Never,,,,,,,,,No
2021-09-06 15:57:24,2021-09-06 16:02:06,IP Address,100,281,TRUE,2021-09-06 16:02:07,R_3FLsrPd4ftkrf1J,anonymous,EN,5,Other (please specify),research,2-5,Plan-based development,1-3 years,"Desktop development,Web development",,"Professional, Scientific and Technical services",,New Zealand,Very familiar,Training as part of my degree (i.e. tertiary education provider),At least once per project,Personal,Unit testing,,Very effective,"small unit to be tested, fast response and easy to diagnose",,,Slightly familiar,Self-study,Never,,,,,,,,,No
2021-09-06 17:48:31,2021-09-06 21:03:24,IP Address,100,11693,TRUE,2021-09-06 21:03:25,R_3iOPWAsUDP7CoNU,anonymous,EN,13,Developer,,greater than 10,Iterative or incremental,1-3 years,Web development,,"Professional, Scientific and Technical services",,New Zealand,Very familiar,"Self-study,Coaching from peers",At least once per project,Personal,Unit testing,,Moderately effective,Need a lot of practice to get familiar with it,,,Slightly familiar,No training,Never,,,,,,,,,Yes
2021-08-31 12:08:55,2021-08-31 12:11:16,IP Address,31,141,FALSE,2021-09-07 12:11:18,R_0iZ3AcfUCI99x6N,anonymous,EN,10,Developer,,2-5,Iterative or incremental,5-10 years,Web development,,Information Media and Telecommunication,,New Zealand,,,,,,,,,,,,,,,,,,,,,,
2021-09-07 20:29:05,2021-09-07 20:42:40,IP Address,100,814,TRUE,2021-09-07 20:42:41,R_33gzkTcuGowmVBp,anonymous,EN,25,Other (please specify),Software and hardware engineer,2-5,Ad-hoc,No experience,Embedded systems,,Other (please specify),Infrastructure,New Zealand,Slightly familiar,No training,Never,,,,,,,,Not familiar at all,No training,Never,,,,,,,,Don't be surprised that extremely reliable code can seemingly be written without rigorous unit testing.,Yes
2021-09-08 07:23:46,2021-09-08 07:27:53,IP Address,100,247,TRUE,2021-09-08 07:27:54,R_22LeTsFVlqH5Mwa,anonymous,EN,15,Developer,,6-10,Iterative or incremental,5-10 years,"Web development,Cloud-based infrastructure (e.g. SaaS)",,Accomodation and Food services,,United States of America,Very familiar,"Training as part of my degree (i.e. tertiary education provider),Coaching from peers",At least once per iteration / sprint,Team-wide,"Unit testing,Acceptance testing",,Very effective,Edge cases may be forgotten,Very effective,Difficulty of mocking external services,Slightly familiar,No training,Never,,,,,,,,,No
2021-09-06 15:23:40,2021-09-06 15:26:07,IP Address,3,147,FALSE,2021-09-13 15:26:08,R_2wHVkXAgZPCctnn,anonymous,EN,,,,,,,,,,,,,,,,,,,,,,,,,,,,,,,,,
2021-09-06 15:26:44,2021-09-06 15:27:33,IP Address,3,48,FALSE,2021-09-13 15:27:41,R_2zdwFqa8kj8UyDM,anonymous,EN,,,,,,,,,,,,,,,,,,,,,,,,,,,,,,,,,
2021-09-06 15:31:42,2021-09-06 15:55:14,IP Address,3,1412,FALSE,2021-09-13 15:55:17,R_3ef7118zcSJCptq,anonymous,EN,,,,,,,,,,,,,,,,,,,,,,,,,,,,,,,,,
2021-09-06 18:02:07,2021-09-06 18:02:35,IP Address,3,28,FALSE,2021-09-13 18:02:37,R_3NWbGLwwV1b9TGY,anonymous,EN,,,,,,,,,,,,,,,,,,,,,,,,,,,,,,,,,
2021-09-06 22:03:41,2021-09-06 22:04:35,IP Address,21,53,FALSE,2021-09-13 22:04:36,R_1mRCDD4TlfK6dVW,anonymous,EN,5,Developer,,self-employed,Iterative or incremental,1-3 years,,,,,,,,,,,,,,,,,,,,,,,,,,,
2021-09-14 08:54:56,2021-09-14 10:19:39,IP Address,100,5082,TRUE,2021-09-14 10:19:40,R_21vxuqUxiFmRPiJ,anonymous,EN,10,Developer,,6-10,Iterative or incremental,5-10 years,"Web development,Cloud-based infrastructure (e.g. SaaS)",,Other (please specify),supply chain - EDI,United States of America,Moderately familiar,"Training as part of my degree (i.e. tertiary education provider),Professional development (e.g. dedicated workshop) required or supported by my employer,Coaching from peers",At least once per week,Personal,"Unit testing,Acceptance testing",,Very effective,sometimes very costly for low return on investment. So I don't consider it compulsory.,Moderately effective,"only useful when you're nearing the end of the development. which means that possibly the scope has evolved and the test has to be maintained throughout. The larger the scope of the test, the more likely it is to require changes between the start and the end of the development. ",Slightly familiar,Professional development (e.g. dedicated workshop) required or supported by my employer,Never,,,,,,,,,No
2021-09-18 21:03:44,2021-09-18 21:06:11,IP Address,100,147,TRUE,2021-09-18 21:06:12,R_sSam4Hvv3tXBLmV,anonymous,EN,3,Developer,,6-10,Iterative or incremental,less than 1 year,"Mobile development,Desktop development",,"Transport, Postal and Warehousing",,United States of America,Very familiar,"Training as part of my degree (i.e. tertiary education provider),Self-study",Never,,,,,,,,Moderately familiar,Training as part of my degree (i.e. tertiary education provider),Never,,,,,,,,,No
2021-09-19 16:44:01,2021-09-19 16:57:06,IP Address,100,785,TRUE,2021-09-19 16:57:06,R_3MGTedVDUXVzojk,anonymous,EN,1,Developer,,greater than 10,Iterative or incremental,less than 1 year,Embedded systems,,Health Care and Social Assistance,,New Zealand,Slightly familiar,Professional development (e.g. dedicated workshop) required or supported by my employer,At least once per iteration / sprint,Team-wide,Unit testing,,Slightly effective,There are many drivers that can’t be unit tested since there interact directly with hardware,,,Not familiar at all,No training,Never,,,,,,,,,No
2021-09-14 00:34:50,2021-09-14 00:50:53,IP Address,3,962,FALSE,2021-09-21 00:50:56,R_2qwIxoBeFPIaSGl,anonymous,EN,,,,,,,,,,,,,,,,,,,,,,,,,,,,,,,,,
2021-09-14 01:33:32,2021-09-14 01:35:50,IP Address,41,138,FALSE,2021-09-21 01:35:51,R_3m37OPCMu8jpMNs,anonymous,EN,7,Developer,,6-10,Iterative or incremental,3-5 years,"Web development,Cloud-based infrastructure (e.g. SaaS)",,Information Media and Telecommunication,,Australia,Very familiar,"Professional development (e.g. dedicated workshop) required or supported by my employer,Self-study,Coaching from peers",At least once per project,,,,,,,,,,,,,,,,,,,
2021-09-19 00:08:34,2021-09-19 00:09:36,IP Address,21,62,FALSE,2021-09-26 00:09:38,R_1KjB9fCiOeRtkSD,anonymous,EN,5,Developer,,2-5,Iterative or incremental,1-3 years,,,,,,,,,,,,,,,,,,,,,,,,,,,
2021-09-20 07:07:05,2021-09-20 07:07:09,IP Address,3,3,FALSE,2021-09-27 07:07:10,R_11jdnnEUDzmUZ0T,anonymous,EN,,,,,,,,,,,,,,,,,,,,,,,,,,,,,,,,,
2021-09-27 15:11:19,2021-09-27 15:15:14,IP Address,100,234,TRUE,2021-09-27 15:15:15,R_1o8arV1LGfb9mh3,anonymous,EN,3,Developer,,6-10,Iterative or incremental,1-3 years,"Web development,Cloud-based infrastructure (e.g. SaaS)",,Health Care and Social Assistance,,Australia,Moderately familiar,"Training as part of my degree (i.e. tertiary education provider),Coaching from peers",Never,,,,,,,,Moderately familiar,No training,Never,,,,,,,,,Yes
2021-09-21 20:40:33,2021-09-21 20:40:42,IP Address,3,9,FALSE,2021-09-28 20:40:46,R_11jtKn5w69uV7jC,anonymous,EN,,,,,,,,,,,,,,,,,,,,,,,,,,,,,,,,,
2021-09-28 21:31:13,2021-09-28 21:34:29,IP Address,100,196,TRUE,2021-09-28 21:34:30,R_1jqT5vsX1Auj1LI,anonymous,EN,2,Technical lead,,self-employed,Iterative or incremental,1-3 years,"Mobile development,Web development,Cloud-based infrastructure (e.g. SaaS)",,Administrative and Support services,,New Zealand,Very familiar,"Training as part of my degree (i.e. tertiary education provider),Self-study",At least once per project,Personal,Unit testing,,Very effective,Helps in thinking of fringe cases in unit development that may not have been caught otherwise,,,Slightly familiar,No training,Never,,,,,,,,,No
2021-09-22 06:31:31,2021-09-22 06:31:50,IP Address,3,19,FALSE,2021-09-29 06:31:51,R_cIpuDklg1QZOAk9,anonymous,EN,,,,,,,,,,,,,,,,,,,,,,,,,,,,,,,,,